%YAML 1.1
%TAG !u! tag:unity3d.com,2011:
--- !u!114 &11400000
MonoBehaviour:
  m_ObjectHideFlags: 0
  m_CorrespondingSourceObject: {fileID: 0}
  m_PrefabInstance: {fileID: 0}
  m_PrefabAsset: {fileID: 0}
  m_GameObject: {fileID: 0}
  m_Enabled: 1
  m_EditorHideFlags: 0
  m_Script: {fileID: 11500000, guid: 297342ee9a8bdf64aa73ebb3130542f0, type: 3}
  m_Name: PigSteel
  m_EditorClassIdentifier: 
  status: Pig Steel
  statusDuration: 1
  Quality: -5
  Price: -20
